module task-manager

go 1.22

require (
	github.com/brianvoe/gofakeit/v6 v6.28.0
	github.com/gavv/httpexpect/v2 v2.16.0
	github.com/go-chi/chi/v5 v5.0.12
	github.com/go-chi/render v1.0.3
	github.com/google/uuid v1.6.0
	github.com/ilyakaznacheev/cleanenv v1.5.0
	github.com/jackc/pgx/v5 v5.5.5
	github.com/stretchr/testify v1.8.1
)

require (
	github.com/BurntSushi/toml v1.2.1 // indirect
	github.com/TylerBrock/colorjson v0.0.0-20200706003622-8a50f05110d2 // indirect
	github.com/ajg/form v1.5.1 // indirect
	github.com/andybalholm/brotli v1.0.4 // indirect
	github.com/davecgh/go-spew v1.1.1 // indirect
	github.com/fatih/color v1.15.0 // indirect
	github.com/fatih/structs v1.1.0 // indirect
	github.com/gobwas/glob v0.2.3 // indirect
	github.com/google/go-querystring v1.1.0 // indirect
	github.com/gorilla/websocket v1.4.2 // indirect
	github.com/hpcloud/tail v1.0.0 // indirect
	github.com/imkira/go-interpol v1.1.0 // indirect
	github.com/jackc/pgpassfile v1.0.0 // indirect
	github.com/jackc/pgservicefile v0.0.0-20221227161230-091c0ba34f0a // indirect
	github.com/jackc/puddle/v2 v2.2.1 // indirect
	github.com/joho/godotenv v1.5.1 // indirect
	github.com/klauspost/compress v1.15.0 // indirect
	github.com/kr/text v0.2.0 // indirect
	github.com/mattn/go-colorable v0.1.13 // indirect
	github.com/mattn/go-isatty v0.0.18 // indirect
	github.com/mitchellh/go-wordwrap v1.0.1 // indirect
	github.com/pmezard/go-difflib v1.0.0 // indirect
	github.com/rogpeppe/go-internal v1.12.0 // indirect
	github.com/sanity-io/litter v1.5.5 // indirect
	github.com/sergi/go-diff v1.0.0 // indirect
	github.com/stretchr/objx v0.5.0 // indirect
	github.com/valyala/bytebufferpool v1.0.0 // indirect
	github.com/valyala/fasthttp v1.34.0 // indirect
	github.com/xeipuuv/gojsonpointer v0.0.0-20190905194746-02993c407bfb // indirect
	github.com/xeipuuv/gojsonreference v0.0.0-20180127040603-bd5ef7bd5415 // indirect
	github.com/xeipuuv/gojsonschema v1.2.0 // indirect
	github.com/yalp/jsonpath v0.0.0-20180802001716-5cc68e5049a0 // indirect
	github.com/yudai/gojsondiff v1.0.0 // indirect
	github.com/yudai/golcs v0.0.0-20170316035057-ecda9a501e82 // indirect
	golang.org/x/crypto v0.17.0 // indirect
	golang.org/x/net v0.10.0 // indirect
	golang.org/x/sync v0.1.0 // indirect
	golang.org/x/sys v0.15.0 // indirect
	golang.org/x/text v0.14.0 // indirect
	gopkg.in/fsnotify.v1 v1.4.7 // indirect
	gopkg.in/tomb.v1 v1.0.0-20141024135613-dd632973f1e7 // indirect
	gopkg.in/yaml.v3 v3.0.1 // indirect
	moul.io/http2curl/v2 v2.3.0 // indirect
	olympos.io/encoding/edn v0.0.0-20201019073823-d3554ca0b0a3 // indirect
)
